%!PS-Adobe-3.0 EPSF-3.0
%%Creator: EpsGraphics 1.0.0 by Thomas Abeel, http://www.sourceforge.net/epsgraphics/
%%Title: GeoGebra, http://www.geogebra.org/
%%CreationDate: Sat Dec 28 12:25:05 CET 2013
%%BoundingBox: 0 0 83 60
%%DocumentData: Clean7Bit
%%LanguageLevel: 2
%%DocumentProcessColors: Black
%%ColorUsage: Color
%%Origin: 0 0
%%Pages: 1
%%Page: 1 1
%%EndComments

gsave
0.0 60.0 translate
0.0 0.0 0.0 setrgbcolor
0.0 0.0 0.0 setrgbcolor
gsave
newpath
0.0 -0.0 moveto
83.88146035375225 -0.0 lineto
83.88146035375225 -60.8652059883934 lineto
0.0 -60.8652059883934 lineto
0.0 -0.0 lineto
closepath
clip
newpath
1.0 1.0 1.0 setrgbcolor
newpath
-21.993309726898456 291.02774964198187 moveto
602.0029197339414 291.02774964198187 lineto
602.0029197339414 -70.58318005376714 lineto
-21.993309726898456 -70.58318005376714 lineto
-21.993309726898456 291.02774964198187 lineto
closepath
fill
newpath
0.0 0.0 0.0 setrgbcolor
1.0 setlinewidth
10.0 setmiterlimit
0 setlinejoin
0 setlinecap
[ ] 0 setdash
newpath
5.72355339349722 290.0048050035215 moveto
5.72355339349722 -45.009564092257335 lineto
stroke
newpath
1.0 setlinewidth
10.0 setmiterlimit
0 setlinejoin
0 setlinecap
[ ] 0 setdash
newpath
5.9792895531123165 290.51627732275165 moveto
4.189136435806628 288.9818603650611 lineto
stroke
newpath
1.0 setlinewidth
10.0 setmiterlimit
0 setlinejoin
0 setlinecap
[ ] 0 setdash
newpath
5.467817233882119 290.51627732275165 moveto
7.257970351187808 288.9818603650611 lineto
stroke
newpath
1.0 setlinewidth
10.0 setmiterlimit
0 setlinejoin
0 setlinecap
[ ] 0 setdash
newpath
5.626195511532163 -45.49108924142433 moveto
600.979975095481 -45.49108924142433 lineto
stroke
newpath
1.0 setlinewidth
10.0 setmiterlimit
0 setlinejoin
0 setlinecap
[ ] 0 setdash
newpath
601.4914474147113 -45.74682540103947 moveto
599.9570304570207 -43.95667228373378 lineto
stroke
newpath
1.0 setlinewidth
10.0 setmiterlimit
0 setlinejoin
0 setlinecap
[ ] 0 setdash
newpath
601.4914474147113 -45.23535308180925 moveto
599.9570304570207 -47.02550619911494 lineto
stroke
newpath
0.0 0.0 0.0 setrgbcolor
0.5 setlinewidth
10.0 setmiterlimit
1 setlinejoin
1 setlinecap
[ ] 0 setdash
newpath
62.41646677932398 -31.681336622209017 moveto
54.78955100879551 -31.681336622209017 48.60671416010868 -37.86417347089588 48.60671416010868 -45.49108924142433 curveto
62.41646677932398 -45.49108924142433 lineto
closepath
stroke
newpath
0.5 setlinewidth
10.0 setmiterlimit
1 setlinejoin
1 setlinecap
[ ] 0 setdash
newpath
57.18383926116839 -39.74698940403857 moveto
57.18383926116839 -40.029467765910056 56.95484530380962 -40.258461723268795 56.67236694193819 -40.258461723268795 curveto
56.38988858006678 -40.258461723268795 56.160894622708 -40.029467765910056 56.160894622708 -39.74698940403857 curveto
56.160894622708 -39.464511042167146 56.38988858006678 -39.23551708480841 56.67236694193819 -39.23551708480841 curveto
56.95484530380962 -39.23551708480841 57.18383926116839 -39.464511042167146 57.18383926116839 -39.74698940403857 curveto
closepath
fill
newpath
0.0 0.0 0.0 setrgbcolor
1.0 setlinewidth
10.0 setmiterlimit
1 setlinejoin
0 setlinecap
[ 5.0 4.0 ] 0 setdash
newpath
62.41646677932398 -17.14463254851097 moveto
62.41646677932398 -45.49108924142433 lineto
stroke
newpath
0.0 0.0 0.0 setrgbcolor
1.0 setlinewidth
10.0 setmiterlimit
1 setlinejoin
0 setlinecap
[ 5.0 4.0 ] 0 setdash
newpath
56.48472528561135 -30.786238152414455 moveto
56.13109011685444 -31.111902177879873 55.79044156614874 -31.274734176054267 55.46277961652444 -31.274734176054267 curveto
55.19305787764206 -31.274734176054267 54.969288743367514 -31.19032126147812 54.791472197534816 -31.021495439872922 curveto
54.6136556437531 -30.852669610720586 54.524747374811255 -30.639389650669948 54.524747374811255 -30.381655556148417 curveto
54.524747374811255 -30.026022448584957 54.674093300599836 -29.752804332689177 54.97278513882442 -29.56200118519456 curveto
55.27147699040158 -29.37119802917034 55.699535366349394 -29.275796459687797 56.25696026845415 -29.275796459687797 curveto
56.39781495011715 -29.275796459687797 lineto
56.39781495011715 -28.883201495903677 lineto
56.39781495011715 -28.505591061468337 56.20401488588314 -28.316785861131166 55.8164147747422 -28.316785861131166 curveto
55.504736320922554 -28.316785861131166 55.16808364595432 -28.412686923844912 54.80645673813726 -28.604489040698184 curveto
54.80645673813726 -28.115993017058372 lineto
55.204046560637956 -27.954159973728956 55.5766621302833 -27.87324345929875 55.924303467079824 -27.87324345929875 curveto
56.2879283298694 -27.87324345929875 56.55615159839158 -27.95515895036673 56.728973297431224 -28.11898992517888 curveto
56.90179500419661 -28.282820907314846 56.98820584985357 -28.537558097824387 56.98820584985357 -28.883201495903677 curveto
56.98820584985357 -30.357680291184465 lineto
56.98820584985357 -30.6953319494891 57.09209866779345 -30.86415776354721 57.29988429438447 -30.86415776354721 curveto
57.32585749886944 -30.86415776354721 57.36381833503253 -30.860161885934133 57.41376680296307 -30.852170131065236 curveto
57.455723516649925 -31.178833116198575 lineto
57.321861616612004 -31.24276715800775 57.17401415091241 -31.274734176054267 57.01218111481748 -31.274734176054267 curveto
56.736465559515494 -31.274734176054267 56.56064695686576 -31.111902163321556 56.48472528561135 -30.786238152414455 curveto
closepath
56.39781495011715 -30.465568983522132 moveto
56.39781495011715 -29.62343780166458 lineto
56.20001901416485 -29.61744398542362 lineto
55.87635292750599 -29.61744398542362 55.614622958318755 -29.678880603724593 55.41482908659661 -29.801753834833676 curveto
55.215035205942996 -29.92462707143566 55.115138274547675 -30.085960624570596 55.115138274547675 -30.285754496292725 curveto
55.115138274547675 -30.427608151556807 55.165086744711076 -30.547484473607632 55.26498368057214 -30.645383470751483 curveto
55.36488062089895 -30.74328247227176 55.48675488363191 -30.79223196865547 55.63060647127185 -30.79223196865547 curveto
55.876352944475805 -30.79223196865547 56.132089100726716 -30.683344303699254 56.39781495011715 -30.465568983522132 curveto
closepath
fill
newpath
0.0 0.0 0.0 setrgbcolor
1.0 setlinewidth
10.0 setmiterlimit
1 setlinejoin
1 setlinecap
[ ] 0 setdash
newpath
5.72355339349722 -45.49108924142433 moveto
56.0118202826381 -20.346955796853933 lineto
stroke
newpath
1.0 setlinewidth
10.0 setmiterlimit
1 setlinejoin
1 setlinecap
[ ] 0 setdash
newpath
62.41646494536528 -17.1446245658758 moveto
56.812402849014646 -21.94810636274775 lineto
55.211242250057325 -18.745785164833137 lineto
closepath
fill
newpath
0.0 0.0 0.0 setrgbcolor
0.0 0.0 0.0 setrgbcolor
1.0 setlinewidth
10.0 setmiterlimit
1 setlinejoin
1 setlinecap
[ ] 0 setdash
newpath
34.79610170540733 -21.90805003220502 moveto
34.79610170540733 -22.227720241250807 34.71618415314588 -22.62730798826767 34.55634905576817 -23.106813280400793 curveto
34.236678846722384 -24.065823907538157 33.837091099705525 -24.625246730497167 33.357585807572406 -24.785081827874876 curveto
33.27766825531096 -24.864999380136325 33.1977507066221 -24.904958152694455 33.11783315793325 -24.904958152694455 curveto
32.63832784436457 -24.904958152694455 32.31865765675434 -24.74512304817156 32.15882255937663 -24.425452853416143 curveto
32.07890500711518 -24.26561774889325 32.03894623455705 -24.105782651515543 32.03894623455705 -23.945947554137835 curveto
32.03894623455705 -23.62627734509205 32.15882256294922 -23.18673082194446 32.39857520901578 -22.627307981122485 curveto
32.51845153383536 -22.38755533148333 lineto
32.59836908609681 -22.14780267469899 32.63832785865494 -21.948008804763152 32.63832785865494 -21.788173707385443 curveto
32.63832785865494 -21.62833860286255 32.55841030639349 -21.54842105774629 32.39857520901578 -21.54842105774629 curveto
32.15882255223144 -21.54842105774629 31.919069906164882 -21.78817371453063 31.67931726009832 -22.26767900666375 curveto
31.67931726009832 -22.3475965589252 31.67931726009832 -22.42751410761405 31.67931726009832 -22.507431656302906 curveto
31.599399707836874 -22.587349208564355 31.559440935278744 -22.627307981122485 31.559440935278744 -22.627307981122485 curveto
31.479523383017295 -22.627307981122485 31.439564610459165 -22.627307981122485 31.439564610459165 -22.627307981122485 curveto
31.439564610459165 -22.46747287659959 31.47952338658989 -22.307637779221885 31.559440935278744 -22.147802681844176 curveto
31.799193592063084 -21.668297368275493 32.078905014260364 -21.42854473292671 32.39857520901578 -21.42854473292671 curveto
32.71824541806157 -21.42854473292671 32.918039284424815 -21.54842106131888 32.99795683311367 -21.788173707385443 curveto
33.07787438537512 -21.86809125964689 33.11783315793325 -21.948008808335743 33.11783315793325 -22.027926357024597 curveto
33.11783315793325 -22.107843909286046 33.07787438180252 -22.22772023410562 32.99795683311367 -22.38755533148333 curveto
32.67828662406788 -23.10681330183635 32.51845153383536 -23.62627735938242 32.51845153383536 -23.945947554137835 curveto
32.51845153383536 -24.065823878957413 lineto
32.51845153383536 -24.465411640264644 32.67828663835825 -24.665205503055297 32.99795683311367 -24.665205503055297 curveto
33.11783315793325 -24.665205503055297 lineto
33.51742091924048 -24.665205503055297 33.877049886554026 -24.34553529400951 34.196720081309444 -23.70619490449868 curveto
34.35655518583234 -23.226689590929997 34.4364727309486 -22.867060627189044 34.4364727309486 -22.627307981122485 curveto
34.4364727309486 -22.387555324338145 34.35655517868715 -22.187761454402306 34.196720081309444 -22.027926357024597 curveto
34.116802529047995 -21.94800880476315 34.076843756489865 -21.868091256074294 34.076843756489865 -21.788173707385443 curveto
34.076843756489865 -21.62833860286255 34.156761308751314 -21.508462281615564 34.31659640612902 -21.42854473292671 curveto
34.31659640612902 -21.42854473292671 34.35655518225975 -21.42854473292671 34.4364727309486 -21.42854473292671 curveto
34.59630783547149 -21.42854473292671 34.71618415671848 -21.508462285188156 34.79610170540733 -21.668297382565864 curveto
34.79610170540733 -21.748214934827313 34.79610170540733 -21.828132483516164 34.79610170540733 -21.90805003220502 curveto
closepath
fill
newpath
0.0 0.0 0.0 setrgbcolor
0.0 0.0 0.0 setrgbcolor
0.0 0.0 0.0 setrgbcolor
0.0 0.0 0.0 setrgbcolor
0.0 0.0 0.0 setrgbcolor
1.0 setlinewidth
10.0 setmiterlimit
1 setlinejoin
1 setlinecap
[ ] 0 setdash
newpath
67.05881268962547 -43.422396868977174 moveto
67.05881268962547 -43.182644219338016 lineto
67.05881268962547 -43.182644219338016 67.05881268962547 -43.182644219338016 67.05881268962547 -43.182644219338016 curveto
67.53831800319415 -42.862974010292234 67.93790574306581 -42.48336565134073 68.25757593782123 -42.043819133552034 curveto
68.57724614686703 -41.60427259611407 68.73708123709955 -41.10478791412929 68.73708123709955 -40.545365073307316 curveto
68.73708123709955 -34.91117780678718 lineto
68.73708123709955 -34.51159004547995 68.816998789361 -34.11200230203568 68.9768338867387 -33.712414558591405 curveto
69.1366689912616 -33.312826797284174 69.3564422528354 -32.97317721803599 69.63615367324637 -32.693465797625 curveto
69.91586510616143 -32.41375436470994 70.2555146907685 -32.15402233236431 70.65510243421278 -31.91426968629775 curveto
70.335432225167 -31.8343521340363 70.05572080654231 -31.674517033086 69.81596816047575 -31.43476438701944 curveto
69.5762155036914 -31.195011730235098 69.37642163375556 -30.955259084168535 69.21658653637786 -30.715506438101976 curveto
69.05675143185496 -30.475753781317636 68.93687511060797 -30.216021747185714 68.85695756191912 -29.936310326774723 curveto
68.77704000965767 -29.65659889385966 68.73708123709955 -29.356908085383306 68.73708123709955 -29.037237890627893 curveto
68.73708123709955 -23.403050624107756 lineto
68.73708123709955 -22.84362775827763 68.57724613257665 -22.34414308165174 68.25757593782123 -21.90459656386304 curveto
67.93790572877545 -21.465050026425082 67.5383179817586 -21.08544167283247 67.05881268962547 -20.765771478077056 curveto
67.05881268962547 -20.765771478077056 67.05881268962547 -20.765771478077056 67.05881268962547 -20.765771478077056 curveto
67.05881268962547 -20.526018828437902 lineto
67.05881268962547 -20.446101276176453 67.09877146575619 -20.406142503618323 67.17868901444504 -20.406142503618323 curveto
67.4184416640842 -20.406142503618323 lineto
67.49835921634565 -20.486060055879772 67.61823554116522 -20.565977604568623 67.77807063854293 -20.645895153257477 curveto
67.93790574306583 -20.725812705518926 68.07776145237817 -20.82570964227314 68.19763777541145 -20.94558596530642 curveto
68.31751410380362 -21.06546229369859 68.41741103877153 -21.16535922866651 68.49732858746039 -21.245276777355365 curveto
68.81699879650618 -21.564946986401154 69.05675143900015 -21.904596569221933 69.21658653637786 -22.264225538321774 curveto
69.37642164090074 -22.623854523498284 69.456339186017 -23.003462880663488 69.456339186017 -23.403050624107756 curveto
69.456339186017 -29.037237890627893 lineto
69.456339186017 -29.436825651935127 69.51627735021309 -29.796454619248674 69.63615367324637 -30.11612481400409 curveto
69.75603000163855 -30.435795023049874 69.93584448886791 -30.75546521780529 70.17559713493448 -31.075135412560705 curveto
70.41534979171881 -31.394805621606494 70.69506121391609 -31.634558264100463 71.01473140867151 -31.79439336147817 curveto
71.01473140867151 -31.79439336147817 71.01473140867151 -31.79439336147817 71.01473140867151 -31.79439336147817 curveto
71.01473140867151 -32.03414601111733 lineto
71.01473140867151 -32.03414601111733 71.01473140867151 -32.074104787248054 71.01473140867151 -32.1540223359369 curveto
70.69506119962573 -32.3138574404598 70.41534978100104 -32.53363070203359 70.17559713493448 -32.81334212244458 curveto
69.93584447815014 -33.093053555359646 69.75602999627966 -33.41272375190136 69.63615367324637 -33.7723527210012 curveto
69.5162773448542 -34.131981706177704 69.456339186017 -34.51159006334291 69.456339186017 -34.91117780678718 curveto
69.456339186017 -40.545365073307316 lineto
69.456339186017 -41.024870386875996 69.3564422456902 -41.44443751481304 69.15664837396807 -41.80406648391288 curveto
68.95685449331445 -42.16369546908939 68.71710184546158 -42.48336566205851 68.43739042505061 -42.76307708246949 curveto
68.15767899213554 -43.04278851538456 67.81802940752847 -43.262561771599465 67.4184416640842 -43.422396868977174 curveto
67.17868901444504 -43.422396868977174 lineto
67.09877146218359 -43.422396868977174 67.05881268962547 -43.422396868977174 67.05881268962547 -43.422396868977174 curveto
closepath
fill
newpath
0.0 0.0 0.0 setrgbcolor
0.0 0.0 0.0 setrgbcolor
1.0 setlinewidth
10.0 setmiterlimit
1 setlinejoin
1 setlinecap
[ ] 0 setdash
newpath
75.7565409922925 -31.008114713381794 moveto
75.7565409922925 -31.327784922427583 75.67662344003105 -31.727372669444446 75.51678834265334 -32.20687796157757 curveto
75.19711813360755 -33.16588858871493 74.7975303865907 -33.72531141167394 74.31802509445757 -33.88514650905165 curveto
74.23810754219612 -33.9650640613131 74.15818999350726 -34.00502283387123 74.07827244481841 -34.00502283387123 curveto
73.59876713124973 -34.00502283387123 73.2790969436395 -33.84518772934834 73.1192618462618 -33.52551753459292 curveto
73.03934429400034 -33.365682430070024 72.99938552144222 -33.205847332692315 72.99938552144222 -33.04601223531461 curveto
72.99938552144222 -32.726342026268824 73.11926184983439 -32.28679550312123 73.35901449590095 -31.72737266229926 curveto
73.47889082072052 -31.487620012660106 lineto
73.55880837298197 -31.247867355875766 73.59876714554011 -31.048073485939927 73.59876714554011 -30.88823838856222 curveto
73.59876714554011 -30.728403284039324 73.51884959327866 -30.648485738923064 73.35901449590095 -30.648485738923064 curveto
73.11926183911662 -30.648485738923064 72.87950919305005 -30.888238395707404 72.63975654698349 -31.367743687840527 curveto
72.63975654698349 -31.447661240101976 72.63975654698349 -31.527578788790827 72.63975654698349 -31.60749633747968 curveto
72.55983899472204 -31.68741388974113 72.5198802221639 -31.72737266229926 72.5198802221639 -31.72737266229926 curveto
72.43996266990246 -31.72737266229926 72.40000389734433 -31.72737266229926 72.40000389734433 -31.72737266229926 curveto
72.40000389734433 -31.567537557776365 72.43996267347505 -31.40770246039866 72.5198802221639 -31.24786736302095 curveto
72.75963287894824 -30.768362049452268 73.03934430114553 -30.528609414103485 73.35901449590095 -30.528609414103485 curveto
73.67868470494673 -30.528609414103485 73.87847857130998 -30.648485742495655 73.95839611999884 -30.88823838856222 curveto
74.03831367226029 -30.968155940823664 74.07827244481841 -31.048073489512518 74.07827244481841 -31.127991038201372 curveto
74.07827244481841 -31.20790859046282 74.03831366868769 -31.327784915282397 73.95839611999884 -31.487620012660106 curveto
73.63872591095304 -32.20687798301312 73.47889082072052 -32.726342040559196 73.47889082072052 -33.04601223531461 curveto
73.47889082072052 -33.165888560134185 lineto
73.47889082072052 -33.565476321441416 73.63872592524342 -33.76527018423207 73.95839611999884 -33.76527018423207 curveto
74.07827244481841 -33.76527018423207 lineto
74.47786020612564 -33.76527018423207 74.8374891734392 -33.44559997518628 75.15715936819461 -32.806259585675456 curveto
75.31699447271751 -32.326754272106776 75.39691201783377 -31.96712530836582 75.39691201783377 -31.72737266229926 curveto
75.39691201783377 -31.48762000551492 75.31699446557232 -31.28782613557908 75.15715936819461 -31.127991038201372 curveto
75.07724181593316 -31.048073485939923 75.03728304337503 -30.96815593725107 75.03728304337503 -30.88823838856222 curveto
75.03728304337503 -30.728403284039324 75.11720059563648 -30.60852696279234 75.27703569301418 -30.528609414103485 curveto
75.27703569301418 -30.528609414103485 75.31699446914492 -30.528609414103485 75.39691201783377 -30.528609414103485 curveto
75.55674712235665 -30.528609414103485 75.67662344360365 -30.60852696636493 75.7565409922925 -30.76836206374264 curveto
75.7565409922925 -30.84827961600409 75.7565409922925 -30.92819716469294 75.7565409922925 -31.008114713381794 curveto
closepath
fill
newpath
1.0 setlinewidth
10.0 setmiterlimit
1 setlinejoin
1 setlinecap
[ ] 0 setdash
newpath
78.31258457080648 -34.11292324860062 moveto
78.31258457080648 -34.11292324860062 lineto
78.14475771891715 -35.03597093399196 lineto
76.13083549624514 -35.03597093399196 lineto
76.13083549624514 -34.92408636273132 76.1588066390603 -34.86814408210263 76.2147489221898 -34.86814408210263 curveto
76.2147489221898 -34.86814408210263 lineto
77.22171003352581 -33.69335611887729 lineto
77.61330603293806 -33.24581783383472 77.80910401513847 -32.85422185442899 77.80910401513847 -32.518568155651955 curveto
77.80910401513847 -32.182914441870025 77.69721944387783 -31.93117417153847 77.47345031135981 -31.76334732214995 curveto
77.47345031135981 -31.76334732214995 lineto
77.47345031135981 -31.76334732214995 lineto
77.36156574009917 -31.65146275088931 77.221710031025 -31.595520470260617 77.05388318163648 -31.595520470260617 curveto
76.83011403911519 -31.595520470260617 76.63431604941232 -31.70740504152126 76.4664892000238 -31.931174174039285 curveto
76.41054691439349 -31.987116459669604 76.38257577407914 -32.07102988561427 76.38257577407914 -32.18291445187329 curveto
76.38257577407914 -32.18291445187329 76.4105469168943 -32.18291445187329 76.4664892000238 -32.18291445187329 curveto
76.57837377128445 -32.18291445187329 76.66228719472831 -32.23885673750361 76.7182294778578 -32.35074130376262 curveto
76.7182294778578 -32.35074130376262 lineto
76.7182294778578 -32.40668358939294 76.7182294778578 -32.43465472970728 76.7182294778578 -32.43465472970728 curveto
76.7182294778578 -32.60248158659825 76.63431604941232 -32.686395007541286 76.4664892000238 -32.686395007541286 curveto
76.4664892000238 -32.74233729317161 76.4664892000238 -32.77030843348595 76.4664892000238 -32.77030843348595 curveto
76.29866234313283 -32.77030843348595 76.18677777937464 -32.71436614785563 76.13083549624514 -32.60248158159662 curveto
76.13083549624514 -32.5465392959663 76.13083549624514 -32.490597012836794 76.13083549624514 -32.43465472970728 curveto
76.13083549624514 -32.154943301555676 76.24272006750579 -31.93117417153847 76.4664892000238 -31.76334732214995 curveto
76.63431605691477 -31.539578179628666 76.85808519193361 -31.427693618371283 77.13779660758114 -31.427693618371283 curveto
77.5293926069934 -31.427693618371283 77.83707516045446 -31.567549332447086 78.06084429297248 -31.847260748094616 curveto
78.17272886423312 -32.01508760498558 78.25664228767697 -32.21088559718926 78.31258457080648 -32.43465472970728 curveto
78.31258457080648 -32.43465472970728 78.31258457080648 -32.462625872522445 78.31258457080648 -32.518568155651955 curveto
78.31258457080648 -32.74233729817324 78.20069999954583 -32.994077573506424 77.97693086702782 -33.27378898915396 curveto
77.86504629576717 -33.385673560414595 77.69721944387783 -33.52552926948877 77.47345031135981 -33.69335611887729 curveto
77.22171003352581 -34.02900982265596 lineto
77.13779660758114 -34.02900982265596 lineto
76.55040262596847 -34.61640380426863 lineto
77.55736373730447 -34.61640380426863 lineto
77.83707516545608 -34.61640380426863 78.00490200984298 -34.61640380426863 78.06084429297248 -34.61640380426863 curveto
78.06084429297248 -34.560461518638306 78.08881543578764 -34.392634664248156 78.14475771891715 -34.11292324860062 curveto
78.31258457080648 -34.11292324860062 lineto
closepath
fill
newpath
0.0 0.0 0.0 setrgbcolor
0.0 0.0 0.0 setrgbcolor
0.0 0.0 0.0 setrgbcolor
0.0 0.0 0.0 setrgbcolor
0.0 0.0 0.0 setrgbcolor
0.0 0.0 0.0 setrgbcolor
0.0 0.0 0.0 setrgbcolor
1.0 setlinewidth
10.0 setmiterlimit
1 setlinejoin
1 setlinecap
[ ] 0 setdash
newpath
52.37846996808032 -49.26382150269639 moveto
55.854883387848055 -49.26382150269639 lineto
56.174553596893844 -49.26382150269639 56.474244403583896 -49.22386272656566 56.753955823994886 -49.14394517787681 curveto
57.03366725690995 -49.06402762561536 57.31337867732094 -48.94415130079578 57.59309009773193 -48.78431620341807 curveto
57.87280153064699 -48.62448109889518 58.13253356299262 -48.444666613452114 58.37228620905918 -48.24487274172998 curveto
58.61203886584352 -48.04507886107636 58.81183273577936 -47.82530560128887 58.97166783315707 -47.585552955222305 curveto
58.97166783315707 -47.585552955222305 58.97166783315707 -47.585552955222305 58.97166783315707 -47.585552955222305 curveto
59.21142048279622 -47.585552955222305 lineto
59.29133803505767 -47.585552955222305 59.3312968076158 -47.585552955222305 59.3312968076158 -47.585552955222305 curveto
59.3312968076158 -47.825305604861455 lineto
59.3312968076158 -47.905223157122904 59.3312968076158 -47.945181929681034 59.3312968076158 -47.945181929681034 curveto
59.09154415083146 -48.344769690988265 58.791853340568814 -48.72437804636718 58.43222437146897 -49.084007015467016 curveto
58.07259538629246 -49.44363600064353 57.67300764106189 -49.703368029416566 57.233461123273194 -49.863203126794275 curveto
56.79391458583524 -50.023038231317166 56.33438867998118 -50.102955776433426 55.854883387848055 -50.102955776433426 curveto
52.37846996808032 -50.102955776433426 lineto
52.37846996808032 -50.102955776433426 52.37846996808032 -50.102955776433426 52.37846996808032 -50.102955776433426 curveto
52.37846996808032 -50.102955776433426 52.37846996808032 -50.102955776433426 52.37846996808032 -50.102955776433426 curveto
52.37846996808032 -49.26382150269639 lineto
52.37846996808032 -49.26382150269639 52.37846996808032 -49.26382150269639 52.37846996808032 -49.26382150269639 curveto
52.37846996808032 -49.26382150269639 52.37846996808032 -49.26382150269639 52.37846996808032 -49.26382150269639 curveto
closepath
fill
newpath
1.0 setlinewidth
10.0 setmiterlimit
1 setlinejoin
1 setlinecap
[ ] 0 setdash
newpath
50.1487000864021 -49.26382150269639 moveto
52.42635025797407 -49.26382150269639 lineto
52.42635025797407 -49.26382150269639 52.44632964603943 -49.26382150269639 52.48628842038386 -49.26382150269639 curveto
52.52624719651458 -49.26382150269639 52.54622658279365 -49.26382150269639 52.54622658279365 -49.26382150269639 curveto
52.54622658279365 -50.102955776433426 lineto
52.54622658279365 -50.102955776433426 52.526247194728285 -50.102955776433426 52.48628842038386 -50.102955776433426 curveto
52.44632964425313 -50.102955776433426 52.42635025797407 -50.102955776433426 52.42635025797407 -50.102955776433426 curveto
50.1487000864021 -50.102955776433426 lineto
50.1487000864021 -50.102955776433426 50.12872069833674 -50.102955776433426 50.088761923992315 -50.102955776433426 curveto
50.04880314786159 -50.102955776433426 50.02882376158252 -50.102955776433426 50.02882376158252 -50.102955776433426 curveto
50.02882376158252 -49.26382150269639 lineto
50.02882376158252 -49.26382150269639 50.06878253771325 -49.26382150269639 50.1487000864021 -49.26382150269639 curveto
closepath
fill
newpath
1.0 setlinewidth
10.0 setmiterlimit
1 setlinejoin
1 setlinecap
[ ] 0 setdash
newpath
47.84705123652152 -49.26382150269639 moveto
50.12470140809349 -49.26382150269639 lineto
50.12470140809349 -49.26382150269639 50.14468079615885 -49.26382150269639 50.18463957050328 -49.26382150269639 curveto
50.224598346634004 -49.26382150269639 50.24457773291307 -49.26382150269639 50.24457773291307 -49.26382150269639 curveto
50.24457773291307 -50.102955776433426 lineto
50.24457773291307 -50.102955776433426 50.224598344847706 -50.102955776433426 50.18463957050328 -50.102955776433426 curveto
50.144680794372555 -50.102955776433426 50.12470140809349 -50.102955776433426 50.12470140809349 -50.102955776433426 curveto
47.84705123652152 -50.102955776433426 lineto
47.84705123652152 -50.102955776433426 47.827071848456164 -50.102955776433426 47.78711307411174 -50.102955776433426 curveto
47.74715429798101 -50.102955776433426 47.727174911701944 -50.102955776433426 47.727174911701944 -50.102955776433426 curveto
47.727174911701944 -49.26382150269639 lineto
47.727174911701944 -49.26382150269639 47.76713368783267 -49.26382150269639 47.84705123652152 -49.26382150269639 curveto
closepath
fill
newpath
1.0 setlinewidth
10.0 setmiterlimit
1 setlinejoin
1 setlinecap
[ ] 0 setdash
newpath
45.54540238664095 -49.26382150269639 moveto
47.82305255821292 -49.26382150269639 lineto
47.82305255821292 -49.26382150269639 47.84303194627828 -49.26382150269639 47.88299072062271 -49.26382150269639 curveto
47.92294949675343 -49.26382150269639 47.9429288830325 -49.26382150269639 47.9429288830325 -49.26382150269639 curveto
47.9429288830325 -50.102955776433426 lineto
47.9429288830325 -50.102955776433426 47.922949494967135 -50.102955776433426 47.88299072062271 -50.102955776433426 curveto
47.84303194449198 -50.102955776433426 47.82305255821292 -50.102955776433426 47.82305255821292 -50.102955776433426 curveto
45.54540238664095 -50.102955776433426 lineto
45.54540238664095 -50.102955776433426 45.52542299857559 -50.102955776433426 45.485464224231166 -50.102955776433426 curveto
45.44550544810044 -50.102955776433426 45.42552606182137 -50.102955776433426 45.42552606182137 -50.102955776433426 curveto
45.42552606182137 -49.26382150269639 lineto
45.42552606182137 -49.26382150269639 45.4654848379521 -49.26382150269639 45.54540238664095 -49.26382150269639 curveto
closepath
fill
newpath
1.0 setlinewidth
10.0 setmiterlimit
1 setlinejoin
1 setlinecap
[ ] 0 setdash
newpath
43.24375353676037 -49.26382150269639 moveto
45.52140370833234 -49.26382150269639 lineto
45.52140370833234 -49.26382150269639 45.5413830963977 -49.26382150269639 45.58134187074213 -49.26382150269639 curveto
45.621300646872854 -49.26382150269639 45.64128003315192 -49.26382150269639 45.64128003315192 -49.26382150269639 curveto
45.64128003315192 -50.102955776433426 lineto
45.64128003315192 -50.102955776433426 45.621300645086556 -50.102955776433426 45.58134187074213 -50.102955776433426 curveto
45.541383094611405 -50.102955776433426 45.52140370833234 -50.102955776433426 45.52140370833234 -50.102955776433426 curveto
43.24375353676037 -50.102955776433426 lineto
43.24375353676037 -50.102955776433426 43.223774148695014 -50.102955776433426 43.18381537435059 -50.102955776433426 curveto
43.14385659821986 -50.102955776433426 43.123877211940794 -50.102955776433426 43.123877211940794 -50.102955776433426 curveto
43.123877211940794 -49.26382150269639 lineto
43.123877211940794 -49.26382150269639 43.16383598807152 -49.26382150269639 43.24375353676037 -49.26382150269639 curveto
closepath
fill
newpath
1.0 setlinewidth
10.0 setmiterlimit
1 setlinejoin
1 setlinecap
[ ] 0 setdash
newpath
40.942104686879794 -49.26382150269639 moveto
43.219754858451765 -49.26382150269639 lineto
43.219754858451765 -49.26382150269639 43.23973424651712 -49.26382150269639 43.27969302086155 -49.26382150269639 curveto
43.319651796992275 -49.26382150269639 43.339631183271344 -49.26382150269639 43.339631183271344 -49.26382150269639 curveto
43.339631183271344 -50.102955776433426 lineto
43.339631183271344 -50.102955776433426 43.31965179520598 -50.102955776433426 43.27969302086155 -50.102955776433426 curveto
43.239734244730826 -50.102955776433426 43.219754858451765 -50.102955776433426 43.219754858451765 -50.102955776433426 curveto
40.942104686879794 -50.102955776433426 lineto
40.942104686879794 -50.102955776433426 40.922125298814436 -50.102955776433426 40.88216652447001 -50.102955776433426 curveto
40.842207748339284 -50.102955776433426 40.822228362060216 -50.102955776433426 40.822228362060216 -50.102955776433426 curveto
40.822228362060216 -49.26382150269639 lineto
40.822228362060216 -49.26382150269639 40.86218713819094 -49.26382150269639 40.942104686879794 -49.26382150269639 curveto
closepath
fill
newpath
1.0 setlinewidth
10.0 setmiterlimit
1 setlinejoin
1 setlinecap
[ ] 0 setdash
newpath
27.1323286543198 -49.26382150269639 moveto
30.488865749267966 -49.26382150269639 lineto
30.80853595831375 -49.26382150269639 31.14818554113453 -49.30378027882711 31.507814510234372 -49.38369782751596 curveto
31.867443495410882 -49.46361537977741 32.20709307644536 -49.603471092662346 32.52676327120078 -49.80326496438448 curveto
32.84643348024657 -50.0030588450381 33.12614489887126 -50.22283210482559 33.36589754493782 -50.462584750892155 curveto
33.60565020172216 -50.702337407676495 33.805444071658 -50.98204882987378 33.96527916903571 -51.3017190246292 curveto
34.20503182582005 -50.98204881558341 34.44478447188661 -50.70233739695872 34.68453711795317 -50.462584750892155 curveto
34.92428977473751 -50.222832094107815 35.2040011969348 -50.00305883610662 35.523671391690215 -49.80326496438448 curveto
35.843341600736004 -49.60347108373087 36.18299118355678 -49.463615376204814 36.54262015265662 -49.38369782751596 curveto
36.90224913783313 -49.30378027525452 37.24189871886761 -49.26382150269639 37.56156891362303 -49.26382150269639 curveto
40.91810600857119 -49.26382150269639 lineto
40.91810600857119 -49.26382150269639 40.93808539663655 -49.26382150269639 40.97804417098098 -49.26382150269639 curveto
41.018002947111704 -49.26382150269639 41.03798233339077 -49.26382150269639 41.03798233339077 -49.26382150269639 curveto
41.03798233339077 -50.102955776433426 lineto
41.03798233339077 -50.102955776433426 41.01800294532541 -50.102955776433426 40.97804417098098 -50.102955776433426 curveto
40.938085394850255 -50.102955776433426 40.91810600857119 -50.102955776433426 40.91810600857119 -50.102955776433426 curveto
37.56156891362303 -50.102955776433426 lineto
37.161981152315796 -50.102955776433426 36.74241402080616 -50.16289394062951 36.30286750301747 -50.28277026366279 curveto
35.863320965579504 -50.40264659205496 35.46373322392153 -50.58246107928433 35.10410425482169 -50.82221372535089 curveto
34.744475269645186 -51.06196638213523 34.444784464741424 -51.38163658046324 34.20503181867486 -51.78122432390751 curveto
34.20503181867486 -51.78122432390751 34.16507304254414 -51.78122432390751 34.08515549385528 -51.78122432390751 curveto
33.84540284421613 -51.78122432390751 lineto
33.84540284421613 -51.78122432390751 33.84540284421613 -51.78122432390751 33.84540284421613 -51.78122432390751 curveto
33.60565018743179 -51.38163656260028 33.30595937716914 -51.061966371417455 32.9463304080693 -50.82221372535089 curveto
32.586701422892794 -50.58246106856655 32.187113677662225 -50.40264658669607 31.747567159873526 -50.28277026366279 curveto
31.30802062243557 -50.162893935270624 30.888453492712237 -50.102955776433426 30.488865749267966 -50.102955776433426 curveto
27.1323286543198 -50.102955776433426 lineto
27.1323286543198 -50.102955776433426 27.112349266254437 -50.102955776433426 27.07239049191001 -50.102955776433426 curveto
27.032431715779285 -50.102955776433426 27.01245232950022 -50.102955776433426 27.01245232950022 -50.102955776433426 curveto
27.01245232950022 -49.26382150269639 lineto
27.01245232950022 -49.26382150269639 27.052411105630945 -49.26382150269639 27.1323286543198 -49.26382150269639 curveto
closepath
fill
newpath
1.0 setlinewidth
10.0 setmiterlimit
1 setlinejoin
1 setlinecap
[ ] 0 setdash
newpath
24.83056639605087 -49.26382150269639 moveto
27.10821656762284 -49.26382150269639 lineto
27.10821656762284 -49.26382150269639 27.128195955688202 -49.26382150269639 27.16815473003263 -49.26382150269639 curveto
27.208113506163354 -49.26382150269639 27.22809289244242 -49.26382150269639 27.22809289244242 -49.26382150269639 curveto
27.22809289244242 -50.102955776433426 lineto
27.22809289244242 -50.102955776433426 27.208113504377057 -50.102955776433426 27.16815473003263 -50.102955776433426 curveto
27.128195953901905 -50.102955776433426 27.10821656762284 -50.102955776433426 27.10821656762284 -50.102955776433426 curveto
24.83056639605087 -50.102955776433426 lineto
24.83056639605087 -50.102955776433426 24.810587007985507 -50.102955776433426 24.770628233641084 -50.102955776433426 curveto
24.73066945751036 -50.102955776433426 24.710690071231294 -50.102955776433426 24.710690071231294 -50.102955776433426 curveto
24.710690071231294 -49.26382150269639 lineto
24.710690071231294 -49.26382150269639 24.750648847362015 -49.26382150269639 24.83056639605087 -49.26382150269639 curveto
closepath
fill
newpath
1.0 setlinewidth
10.0 setmiterlimit
1 setlinejoin
1 setlinecap
[ ] 0 setdash
newpath
22.52891754617029 -49.26382150269639 moveto
24.80656771774226 -49.26382150269639 lineto
24.80656771774226 -49.26382150269639 24.826547105807624 -49.26382150269639 24.86650588015205 -49.26382150269639 curveto
24.906464656282775 -49.26382150269639 24.92644404256184 -49.26382150269639 24.92644404256184 -49.26382150269639 curveto
24.92644404256184 -50.102955776433426 lineto
24.92644404256184 -50.102955776433426 24.906464654496478 -50.102955776433426 24.86650588015205 -50.102955776433426 curveto
24.826547104021326 -50.102955776433426 24.80656771774226 -50.102955776433426 24.80656771774226 -50.102955776433426 curveto
22.52891754617029 -50.102955776433426 lineto
22.52891754617029 -50.102955776433426 22.50893815810493 -50.102955776433426 22.468979383760505 -50.102955776433426 curveto
22.42902060762978 -50.102955776433426 22.409041221350716 -50.102955776433426 22.409041221350716 -50.102955776433426 curveto
22.409041221350716 -49.26382150269639 lineto
22.409041221350716 -49.26382150269639 22.448999997481437 -49.26382150269639 22.52891754617029 -49.26382150269639 curveto
closepath
fill
newpath
1.0 setlinewidth
10.0 setmiterlimit
1 setlinejoin
1 setlinecap
[ ] 0 setdash
newpath
20.22726869628972 -49.26382150269639 moveto
22.50491886786169 -49.26382150269639 lineto
22.50491886786169 -49.26382150269639 22.524898255927052 -49.26382150269639 22.56485703027148 -49.26382150269639 curveto
22.604815806402204 -49.26382150269639 22.62479519268127 -49.26382150269639 22.62479519268127 -49.26382150269639 curveto
22.62479519268127 -50.102955776433426 lineto
22.62479519268127 -50.102955776433426 22.604815804615907 -50.102955776433426 22.56485703027148 -50.102955776433426 curveto
22.524898254140755 -50.102955776433426 22.50491886786169 -50.102955776433426 22.50491886786169 -50.102955776433426 curveto
20.22726869628972 -50.102955776433426 lineto
20.22726869628972 -50.102955776433426 20.207289308224357 -50.102955776433426 20.167330533879934 -50.102955776433426 curveto
20.12737175774921 -50.102955776433426 20.107392371470144 -50.102955776433426 20.107392371470144 -50.102955776433426 curveto
20.107392371470144 -49.26382150269639 lineto
20.107392371470144 -49.26382150269639 20.147351147600865 -49.26382150269639 20.22726869628972 -49.26382150269639 curveto
closepath
fill
newpath
1.0 setlinewidth
10.0 setmiterlimit
1 setlinejoin
1 setlinecap
[ ] 0 setdash
newpath
17.92561984640914 -49.26382150269639 moveto
20.20327001798111 -49.26382150269639 lineto
20.20327001798111 -49.26382150269639 20.223249406046474 -49.26382150269639 20.2632081803909 -49.26382150269639 curveto
20.303166956521626 -49.26382150269639 20.32314634280069 -49.26382150269639 20.32314634280069 -49.26382150269639 curveto
20.32314634280069 -50.102955776433426 lineto
20.32314634280069 -50.102955776433426 20.303166954735328 -50.102955776433426 20.2632081803909 -50.102955776433426 curveto
20.223249404260176 -50.102955776433426 20.20327001798111 -50.102955776433426 20.20327001798111 -50.102955776433426 curveto
17.92561984640914 -50.102955776433426 lineto
17.92561984640914 -50.102955776433426 17.90564045834378 -50.102955776433426 17.865681683999355 -50.102955776433426 curveto
17.82572290786863 -50.102955776433426 17.805743521589566 -50.102955776433426 17.805743521589566 -50.102955776433426 curveto
17.805743521589566 -49.26382150269639 lineto
17.805743521589566 -49.26382150269639 17.845702297720287 -49.26382150269639 17.92561984640914 -49.26382150269639 curveto
closepath
fill
newpath
1.0 setlinewidth
10.0 setmiterlimit
1 setlinejoin
1 setlinecap
[ ] 0 setdash
newpath
15.623970996528563 -49.26382150269639 moveto
17.901621168100533 -49.26382150269639 lineto
17.901621168100533 -49.26382150269639 17.921600556165895 -49.26382150269639 17.961559330510322 -49.26382150269639 curveto
18.001518106641047 -49.26382150269639 18.021497492920112 -49.26382150269639 18.021497492920112 -49.26382150269639 curveto
18.021497492920112 -50.102955776433426 lineto
18.021497492920112 -50.102955776433426 18.00151810485475 -50.102955776433426 17.961559330510322 -50.102955776433426 curveto
17.921600554379598 -50.102955776433426 17.901621168100533 -50.102955776433426 17.901621168100533 -50.102955776433426 curveto
15.623970996528563 -50.102955776433426 lineto
15.623970996528563 -50.102955776433426 15.6039916084632 -50.102955776433426 15.564032834118775 -50.102955776433426 curveto
15.52407405798805 -50.102955776433426 15.504094671708986 -50.102955776433426 15.504094671708986 -50.102955776433426 curveto
15.504094671708986 -49.26382150269639 lineto
15.504094671708986 -49.26382150269639 15.544053447839708 -49.26382150269639 15.623970996528563 -49.26382150269639 curveto
closepath
fill
newpath
1.0 setlinewidth
10.0 setmiterlimit
1 setlinejoin
1 setlinecap
[ ] 0 setdash
newpath
8.767021803504047 -47.585552955222305 moveto
9.006774453143201 -47.585552955222305 lineto
9.006774453143201 -47.585552955222305 9.006774453143201 -47.585552955222305 9.006774453143201 -47.585552955222305 curveto
9.246527109927541 -47.905223164268094 9.526238532124827 -48.204913970958145 9.845908726880243 -48.484625391369136 curveto
10.16557893592603 -48.76433682428419 10.525207906812168 -48.964130692433734 10.924795650256439 -49.084007015467016 curveto
11.324383411563673 -49.20388334385919 11.763929931138666 -49.26382150269639 12.243435223271788 -49.26382150269639 curveto
15.599972318219955 -49.26382150269639 lineto
15.599972318219955 -49.26382150269639 15.619951706285317 -49.26382150269639 15.659910480629744 -49.26382150269639 curveto
15.699869256760467 -49.26382150269639 15.719848643039532 -49.26382150269639 15.719848643039532 -49.26382150269639 curveto
15.719848643039532 -50.102955776433426 lineto
15.719848643039532 -50.102955776433426 15.699869254974171 -50.102955776433426 15.659910480629744 -50.102955776433426 curveto
15.61995170449902 -50.102955776433426 15.599972318219955 -50.102955776433426 15.599972318219955 -50.102955776433426 curveto
12.123558898452211 -50.102955776433426 lineto
11.803888689406424 -50.102955776433426 11.464239106585646 -50.0629970003027 11.104610137485803 -49.98307945161385 curveto
10.744981152309293 -49.903161899352405 10.425310959340173 -49.76330618646747 10.145599538929186 -49.56351231474533 curveto
9.865888106014122 -49.363718434091716 9.606156073668494 -49.123965786238855 9.366403427601933 -48.844254365827865 curveto
9.126650770817593 -48.5645429329128 8.926856900881754 -48.26485212443645 8.767021803504047 -47.945181929681034 curveto
8.6871042512426 -47.945181929681034 8.647145478684468 -47.90522315355031 8.647145478684468 -47.825305604861455 curveto
8.647145478684468 -47.585552955222305 lineto
8.647145478684468 -47.585552955222305 8.687104254815193 -47.585552955222305 8.767021803504047 -47.585552955222305 curveto
closepath
fill
newpath
0.0 0.0 0.0 setrgbcolor
0.0 0.0 0.0 setrgbcolor
1.0 setlinewidth
10.0 setmiterlimit
1 setlinejoin
1 setlinecap
[ ] 0 setdash
newpath
34.26995624896577 -53.38489798949196 moveto
34.26995624896577 -53.608667132013245 34.21401396333545 -53.8883785501616 34.10212939707643 -54.224032248938634 curveto
33.87836025455515 -54.89533967650249 33.5986488364068 -55.28693564590496 33.262995137629765 -55.39882021216397 curveto
33.20705285199944 -55.45476249779429 33.15111056886994 -55.482733638108634 33.09516828574043 -55.482733638108634 curveto
32.759514571958505 -55.482733638108634 32.53574544444211 -55.37084906684799 32.42386087818309 -55.147079934329966 curveto
32.36791859255277 -55.03519536306933 32.33994745223843 -54.92331079681031 32.33994745223843 -54.8114262305513 curveto
32.33994745223843 -54.587657088030014 32.42386088068391 -54.27997452706651 32.59168773007243 -53.888378545159966 curveto
32.675601156017095 -53.72055169327063 lineto
32.73154344164742 -53.55272483637966 32.75951458196176 -53.4128691298063 32.75951458196176 -53.300984563547296 curveto
32.75951458196176 -53.18909999228665 32.70357229633144 -53.13315771165796 32.59168773007243 -53.13315771165796 curveto
32.42386087318146 -53.13315771165796 32.25603402379294 -53.30098456854893 32.088207174404424 -53.636638267325964 curveto
32.088207174404424 -53.69258055295629 32.088207174404424 -53.74852283608579 32.088207174404424 -53.804465119215294 curveto
32.0322648887741 -53.86040740484562 32.00429374845976 -53.888378545159966 32.00429374845976 -53.888378545159966 curveto
31.94835146282944 -53.888378545159966 31.920380322515093 -53.888378545159966 31.920380322515093 -53.888378545159966 curveto
31.920380322515093 -53.77649397389932 31.948351465330255 -53.664609407640306 32.00429374845976 -53.5527248413813 curveto
32.17212060535073 -53.21707112759937 32.36791859755441 -53.04924428571329 32.59168773007243 -53.04924428571329 curveto
32.815456872593714 -53.04924428571329 32.95531257666626 -53.13315771415878 33.01125485979576 -53.300984563547296 curveto
33.067197145426086 -53.35692684917762 33.09516828574043 -53.41286913230712 33.09516828574043 -53.468811415436626 curveto
33.09516828574043 -53.52475370106695 33.06719714292527 -53.60866712701162 33.01125485979576 -53.72055169327063 curveto
32.78748571727448 -54.22403226394352 32.675601156017095 -54.587657098033276 32.675601156017095 -54.8114262305513 curveto
32.675601156017095 -54.89533965649597 lineto
32.675601156017095 -55.17505108464758 32.78748572727774 -55.314906786219304 33.01125485979576 -55.314906786219304 curveto
33.09516828574043 -55.314906786219304 lineto
33.374879713892035 -55.314906786219304 33.626619986724414 -55.09113764369802 33.850389119242436 -54.64359937866197 curveto
33.962273690503075 -54.30794566488004 34.01821597113177 -54.056205394548485 34.01821597113177 -53.888378545159966 curveto
34.01821597113177 -53.720551688269 33.962273685501444 -53.58069598169564 33.850389119242436 -53.468811415436626 curveto
33.79444683361211 -53.4128691298063 33.766475693297764 -53.3569268466768 33.766475693297764 -53.300984563547296 curveto
33.766475693297764 -53.18909999228665 33.82241797892809 -53.1051865688428 33.9343025451871 -53.04924428571329 curveto
33.9343025451871 -53.04924428571329 33.96227368800226 -53.04924428571329 34.01821597113177 -53.04924428571329 curveto
34.13010054239241 -53.04924428571329 34.214013965836266 -53.105186571343616 34.26995624896577 -53.21707113760263 curveto
34.26995624896577 -53.27301342323295 34.26995624896577 -53.32895570636246 34.26995624896577 -53.38489798949196 curveto
closepath
fill
newpath
1.0 setlinewidth
10.0 setmiterlimit
1 setlinejoin
1 setlinecap
[ ] 0 setdash
newpath
35.49456933590592 -53.746920944148464 moveto
35.49456933590592 -55.904694790900855 lineto
35.49456933590592 -55.984612343162304 35.51454872397129 -56.024571115720434 35.554507498315715 -56.024571115720434 curveto
35.59446627444644 -56.06452989185116 35.69436321298695 -56.08450927813022 35.85419831036466 -56.08450927813022 curveto
35.97407463518424 -56.08450927813022 lineto
35.97407463518424 -56.2043856029498 lineto
35.89415708292279 -56.2043856029498 35.6743838177764 -56.2043856029498 35.31475484867656 -56.2043856029498 curveto
34.99508463963077 -56.2043856029498 34.795290773267524 -56.2043856029498 34.71537322457867 -56.2043856029498 curveto
34.71537322457867 -56.08450927813022 lineto
34.83524954939825 -56.08450927813022 lineto
35.035043430051864 -56.08450927813022 35.15491974951255 -56.06452989006486 35.19487852385698 -56.024571115720434 curveto
35.19487852385698 -56.024571115720434 lineto
35.19487852385698 -55.98461233958971 35.19487852385698 -55.94465356524528 35.19487852385698 -55.904694790900855 curveto
35.19487852385698 -53.92673543137783 lineto
35.07500219546481 -53.96669420750855 34.915167096300806 -53.986673593787614 34.71537322457867 -53.986673593787614 curveto
34.71537322457867 -53.86679726896804 lineto
34.995084657493734 -53.86679726896804 35.21485791370864 -53.78687971670659 35.37469301108635 -53.627044619328885 curveto
35.45461056334779 -53.627044619328885 35.49456933590592 -53.64702400739425 35.49456933590592 -53.68698278173868 curveto
35.49456933590592 -53.68698278173868 lineto
35.49456933590592 -53.68698278173868 lineto
35.49456933590592 -53.68698278173868 35.49456933590592 -53.70696216980404 35.49456933590592 -53.746920944148464 curveto
closepath
fill
newpath
0.0 0.0 0.0 setrgbcolor
0.0 0.0 0.0 setrgbcolor
0.0 0.0 0.0 setrgbcolor
grestore
grestore
showpage

%%EOF